COVID-19 Pandemic Situation in Slovakia
…
This figures show that daily Covid-19 confirmed cases, death cases and recovered cases in Slovakia. In this figure can be identified differences between three types of cases.From the beginng to middle of the graph(figure 5) can be identified confirmed cases and recovered cases are equal but end part of that graph, recovered cases equal to zero. therefore there are huge difference between confirmed cases and recovered cases. Throughout this graph, death cases are very small. Therefore Slovakia has a small amount of death cases than confirmed cases.

Summary of the Covid-19 confirmed, death, recovered and active cases

Following outputs are given the summary of the Covid-19 confirmed, death, recovered and active cases in Slovakia. In here confirmed, death, recovered and active cases are given by columnwise. Active cases are calculated by using (active cases = confirmedcases - (death cases + recovered cases)) this equation. The 561 obsevations are taken and NA values are removed.

## # A tibble: 561 x 8
##    date       province country    lat  long confirmed death recovered
##    <date>     <chr>    <chr>    <dbl> <dbl>     <int> <int>     <int>
##  1 2020-01-22 <NA>     Slovakia  48.7  19.7         0     0         0
##  2 2020-01-23 <NA>     Slovakia  48.7  19.7         0     0         0
##  3 2020-01-24 <NA>     Slovakia  48.7  19.7         0     0         0
##  4 2020-01-25 <NA>     Slovakia  48.7  19.7         0     0         0
##  5 2020-01-26 <NA>     Slovakia  48.7  19.7         0     0         0
##  6 2020-01-27 <NA>     Slovakia  48.7  19.7         0     0         0
##  7 2020-01-28 <NA>     Slovakia  48.7  19.7         0     0         0
##  8 2020-01-29 <NA>     Slovakia  48.7  19.7         0     0         0
##  9 2020-01-30 <NA>     Slovakia  48.7  19.7         0     0         0
## 10 2020-01-31 <NA>     Slovakia  48.7  19.7         0     0         0
## # ... with 551 more rows
…
