Covid-19 outbreak in Argentina
…
Argentinean government decided to authorize the entry into national territory of nonresident foreigners who have Argentinean relatives and who temporarily enter the country for reasons of necessity and do not require a visa by virtue of bilateral agreements or unilateral measures.

Compulsory Quarantine: The National Civil Aviation Administration (Administracin Nacional de Aviacin Civil  ANAC), has determined until 5 September a weekly quota of 11,900 seats; and from 6 September until 1 October a weekly quota of 16,100 seats on passenger flights for re-entry to the country by Argentine nationals and foreign residents who are abroad.

Those individuals who test negative for coronavirus in respect of the test administered upon arrival into the country must comply with mandatory isolation in such places as indicated by the provincial authorities and the Autonomous City of Buenos Aires for a seven-day period from the collection of the test sample performed at the time of entry into the country. A second test will be administered on the seventh day of the travelers arrival in the country and, if he or she tests negative, then open/free circulation will apply. However, if the individual tests positive for the coronavirus, the intervening laboratory must take precautions to genomically sequence the sample and the local health authority will trace the close contacts of the traveler and transfer him or her to a location for isolation.Not complying with these measures could result in between 15 days and up to two years of prison.

Continuance of Existing Measures: Measures prohibiting group gatherings of more than 10 individuals, closing borders, advising people to keep at least 1.5 meters apart, and confining people to their homes, are still in place to prevent the spread of the coronavirus due to the lack of vaccines.

Actually by considering the actions taken to prevent the spreading of COVID-19 by the government of Argentina, all the people shoud be responsible to hold their self discipline and adhere the given rules.

2. Exploratory Data Analysis

First in our dataset with respective to Argentina ,it can be identified with 1818 rows and 7 variables.

# A tibble: 1,818 x 7
   date       province country     lat  long type      cases
   <date>     <chr>    <chr>     <dbl> <dbl> <chr>     <int>
 1 2020-01-22 <NA>     Argentina -38.4 -63.6 confirmed     0
 2 2020-01-23 <NA>     Argentina -38.4 -63.6 confirmed     0
 3 2020-01-24 <NA>     Argentina -38.4 -63.6 confirmed     0
 4 2020-01-25 <NA>     Argentina -38.4 -63.6 confirmed     0
 5 2020-01-26 <NA>     Argentina -38.4 -63.6 confirmed     0
 6 2020-01-27 <NA>     Argentina -38.4 -63.6 confirmed     0
 7 2020-01-28 <NA>     Argentina -38.4 -63.6 confirmed     0
 8 2020-01-29 <NA>     Argentina -38.4 -63.6 confirmed     0
 9 2020-01-30 <NA>     Argentina -38.4 -63.6 confirmed     0
10 2020-01-31 <NA>     Argentina -38.4 -63.6 confirmed     0
# ... with 1,808 more rows
…
