STA 326 2.0 Programming and Data Analysis with R
…
]

---
background-image: url(ht/ht2.jpg)
background-size: contain

---
# Step 2: Gather sample data

```r
gas
```

```
## # A tibble: 35 × 1
##    weight
##     <dbl>
##  1   9.44
##  2   9.77
##  3  11.6 
##  4  10.1 
##  5  10.1 
##  6  11.7 
##  7  10.5 
##  8   8.73
##  9   9.31
## 10   9.55
## # … with 25 more rows
```
…
