STA 326 2.0 Programming and Data Analysis with R
…
---

```r
Prestige_1 <- train %>%
  pivot_longer(c(1, 2, 3, 4), names_to="variable", values_to="value")
Prestige_1
```

```
# A tibble: 328 x 5
   census type     id variable    value
    <int> <fct> <int> <chr>       <dbl>
 1   3156 wc       31 education   12.8 
 2   3156 wc       31 income    5180   
 3   3156 wc       31 women       76.0 
 4   3156 wc       31 prestige    67.5 
 5   8335 bc       79 education    7.92
 6   8335 bc       79 income    6477   
 7   8335 bc       79 women        5.17
 8   8335 bc       79 prestige    41.8 
 9   5133 wc       51 education   11.1 
10   5133 wc       51 income    8780   
# … with 318 more rows
```
…
### 3. Measure the strength of the fit

### 4. Residual analysis

---
# Observation-level statistics: `augment()`

```r
model1_fitresid <- augment(model1)
model1_fitresid
```

```
# A tibble: 82 x 9
   .rownames  prestige education .fitted .resid   .hat .sigma .cooksd .std.resid
   <chr>         <dbl>     <dbl>   <dbl>  <dbl>  <dbl>  <dbl>   <dbl>      <dbl>
 1 medical.t…     67.5     12.8     57.8  9.70  0.0191   8.80 1.20e-2     1.11  
 2 welders        41.8      7.92    31.9  9.86  0.0246   8.79 1.62e-2     1.13  
 3 commercia…     40.2     11.1     49.0 -8.78  0.0125   8.81 6.36e-3    -1.00  
 4 economists     62.2     14.4     66.6 -4.36  0.0344   8.85 4.51e-3    -0.503 
 5 farmers        44.1      6.84    26.2 17.9   0.0361   8.63 8.01e-2     2.07  
 6 reception…     38.7     11.0     48.5 -9.81  0.0124   8.80 7.86e-3    -1.12  
 7 sales.sup…     41.5      9.84    42.1 -0.636 0.0134   8.87 3.59e-5    -0.0727
 8 mail.carr…     36.1      9.22    38.8 -2.74  0.0157   8.86 7.88e-4    -0.314 
 9 taxi.driv…     25.1      7.93    32.0 -6.90  0.0245   8.83 7.90e-3    -0.793 
10 veterinar…     66.7     15.9     74.5 -7.82  0.0559   8.82 2.47e-2    -0.913 
# … with 72 more rows
```
…
Residual standard error: 7.76 on 79 degrees of freedom
Multiple R-squared:  0.8007,	Adjusted R-squared:  0.7957 
F-statistic: 158.7 on 2 and 79 DF,  p-value: < 2.2e-16
```
---
# Model 2: prestige ~ education +  `income` (cont.)

```r
model2_fitresid <- augment(model2)
model2_fitresid
```

```
# A tibble: 82 x 10
   .rownames      prestige income education .fitted .resid   .hat .sigma .cooksd
   <chr>             <dbl>  <int>     <dbl>   <dbl>  <dbl>  <dbl>  <dbl>   <dbl>
 1 medical.techn…     67.5   5180     12.8     53.1  14.4  0.0342   7.63 4.20e-2
 2 welders            41.8   6477      7.92    35.0   6.78 0.0311   7.77 8.44e-3
 3 commercial.tr…     40.2   8780     11.1     51.9 -11.7  0.0185   7.69 1.47e-2
 4 economists         62.2   8049     14.4     64.5  -2.28 0.0374   7.80 1.16e-3
 5 farmers            44.1   3643      6.84    26.1  18.0  0.0361   7.53 6.99e-2
 6 receptionsts       38.7   2901     11.0     42.3  -3.57 0.0391   7.80 2.99e-3
 7 sales.supervi…     41.5   7482      9.84    44.6  -3.05 0.0174   7.80 9.32e-4
 8 mail.carriers      36.1   5511      9.22    38.9  -2.77 0.0157   7.80 6.90e-4
 9 taxi.drivers       25.1   4224      7.93    31.5  -6.40 0.0247   7.77 5.88e-3
10 veterinarians      66.7  14558     15.9     81.0 -14.3  0.0847   7.62 1.14e-1
# … with 72 more rows, and 1 more variable: .std.resid <dbl>
```
…
When you transform variables (say a log transformation), augment will not display .resid column.

---

### Add new variable (log.income) to the training set.

```r
train$log.income. <- log(train$income)
model3 <- lm(prestige ~ log.income. + education, data=train)
model3_fitresid <- broom::augment(model3)
model3_fitresid
```

```
# A tibble: 82 x 10
   .rownames prestige log.income. education .fitted .resid   .hat .sigma .cooksd
   <chr>        <dbl>       <dbl>     <dbl>   <dbl>  <dbl>  <dbl>  <dbl>   <dbl>
 1 medical.…     67.5        8.55     12.8     54.4  13.1  0.0249   7.19 0.0283 
 2 welders       41.8        8.78      7.92    36.2   5.59 0.0337   7.31 0.00706
 3 commerci…     40.2        9.08     11.1     52.9 -12.7  0.0202   7.20 0.0213 
 4 economis…     62.2        8.99     14.4     65.9  -3.74 0.0346   7.33 0.00326
 5 farmers       44.1        8.20      6.84    25.6  18.5  0.0362   7.03 0.0834 
 6 receptio…     38.7        7.97     11.0     40.9  -2.23 0.0410   7.34 0.00139
 7 sales.su…     41.5        8.92      9.84    45.8  -4.31 0.0201   7.33 0.00243
 8 mail.car…     36.1        8.61      9.22    40.0  -3.89 0.0164   7.33 0.00161
 9 taxi.dri…     25.1        8.35      7.93    31.8  -6.67 0.0245   7.30 0.00719
10 veterina…     66.7        9.59     15.9     78.5 -11.8  0.0636   7.21 0.0630 
# … with 72 more rows, and 1 more variable: .std.resid <dbl>
```
…
