Saudi Arabia
…
Figure 03:Time series plot in Saudi Arabi

The above figure shows the number of recovered cases in Saudi Arabia during the time period January and May.It shows that the number of daily recovered cases increased with the time. The maximum number of daily recovered cases reported on May.It was more than 2500.

Visualization of active COVID-19 cases in Saudi Arabia

library(tidyr)
library(magrittr)
library(tidyverse)
sa_corona_newi <-sa_corona %>%
pivot_wider(names_from = type,values_from = cases)
sa_corona_newi

# A tibble: 112 x 8
   date       province country        lat  long confirmed death recovered
   <date>     <chr>    <chr>        <dbl> <dbl>     <int> <int>     <int>
 1 2020-01-22 ""       Saudi Arabia    24    45         0     0         0
 2 2020-01-23 ""       Saudi Arabia    24    45         0     0         0
 3 2020-01-24 ""       Saudi Arabia    24    45         0     0         0
 4 2020-01-25 ""       Saudi Arabia    24    45         0     0         0
 5 2020-01-26 ""       Saudi Arabia    24    45         0     0         0
 6 2020-01-27 ""       Saudi Arabia    24    45         0     0         0
 7 2020-01-28 ""       Saudi Arabia    24    45         0     0         0
 8 2020-01-29 ""       Saudi Arabia    24    45         0     0         0
 9 2020-01-30 ""       Saudi Arabia    24    45         0     0         0
10 2020-01-31 ""       Saudi Arabia    24    45         0     0         0
# ... with 102 more rows

library(dplyr)
sa_corona_newii<- sa_corona_newi %>%
  mutate(active=confirmed-recovered-death)
sa_corona_newii

# A tibble: 112 x 9
   date       province country        lat  long confirmed death recovered active
   <date>     <chr>    <chr>        <dbl> <dbl>     <int> <int>     <int>  <int>
 1 2020-01-22 ""       Saudi Arabia    24    45         0     0         0      0
 2 2020-01-23 ""       Saudi Arabia    24    45         0     0         0      0
 3 2020-01-24 ""       Saudi Arabia    24    45         0     0         0      0
 4 2020-01-25 ""       Saudi Arabia    24    45         0     0         0      0
 5 2020-01-26 ""       Saudi Arabia    24    45         0     0         0      0
 6 2020-01-27 ""       Saudi Arabia    24    45         0     0         0      0
 7 2020-01-28 ""       Saudi Arabia    24    45         0     0         0      0
 8 2020-01-29 ""       Saudi Arabia    24    45         0     0         0      0
 9 2020-01-30 ""       Saudi Arabia    24    45         0     0         0      0
10 2020-01-31 ""       Saudi Arabia    24    45         0     0         0      0
# ... with 102 more rows

library(dplyr)
sa_corona_newiii<-sa_corona_newii %>%
  mutate(active_total = cumsum(active),
                recovered_total = cumsum(recovered),
                death_total = cumsum(death)) 
sa_corona_newiii

# A tibble: 112 x 12
   date       province country   lat  long confirmed death recovered active
   <date>     <chr>    <chr>   <dbl> <dbl>     <int> <int>     <int>  <int>
 1 2020-01-22 ""       Saudi ~    24    45         0     0         0      0
 2 2020-01-23 ""       Saudi ~    24    45         0     0         0      0
 3 2020-01-24 ""       Saudi ~    24    45         0     0         0      0
 4 2020-01-25 ""       Saudi ~    24    45         0     0         0      0
 5 2020-01-26 ""       Saudi ~    24    45         0     0         0      0
 6 2020-01-27 ""       Saudi ~    24    45         0     0         0      0
 7 2020-01-28 ""       Saudi ~    24    45         0     0         0      0
 8 2020-01-29 ""       Saudi ~    24    45         0     0         0      0
 9 2020-01-30 ""       Saudi ~    24    45         0     0         0      0
10 2020-01-31 ""       Saudi ~    24    45         0     0         0      0
# ... with 102 more rows, and 3 more variables: active_total <int>,
#   recovered_total <int>, death_total <int>
…
