AS2017367_Colombia
…
count(near_countries, type)

# A tibble: 3 x 2
  type          n
  <chr>     <int>
1 confirmed  1568
2 death      1568
3 recovered  1568

near_countries <- near_countries%>%
  group_by(country,type)%>%
  mutate(cum_cases = cumsum(cases))
near_countries

# A tibble: 4,704 x 8
# Groups:   country, type [42]
   date       province country     lat  long type      cases cum_cases
   <date>     <chr>    <chr>     <dbl> <dbl> <chr>     <int>     <int>
 1 2020-01-22 ""       Argentina -38.4 -63.6 confirmed     0         0
 2 2020-01-23 ""       Argentina -38.4 -63.6 confirmed     0         0
 3 2020-01-24 ""       Argentina -38.4 -63.6 confirmed     0         0
 4 2020-01-25 ""       Argentina -38.4 -63.6 confirmed     0         0
 5 2020-01-26 ""       Argentina -38.4 -63.6 confirmed     0         0
 6 2020-01-27 ""       Argentina -38.4 -63.6 confirmed     0         0
 7 2020-01-28 ""       Argentina -38.4 -63.6 confirmed     0         0
 8 2020-01-29 ""       Argentina -38.4 -63.6 confirmed     0         0
 9 2020-01-30 ""       Argentina -38.4 -63.6 confirmed     0         0
10 2020-01-31 ""       Argentina -38.4 -63.6 confirmed     0         0
# ... with 4,694 more rows
…
