AS2017372_Egypt
…
Figure 04: Daily recovered COVID-19 cases in Egypt(negative value is shown in red)

The above figure shows the number of recovered cases in Egypt during the time period January and May.It shows that the number of daily recovered cases increased with the time. The maximum number of daily recovered cases reported on April and it was more than 150. After the maximum daily recovered cases found, the cases suddenly went to zero.

Visualization of active COVID-19 cases in Egypt

library(tidyr)
library(magrittr)
library(tidyverse)
egypt_corona_new1 <-egypt_corona %>%
pivot_wider(names_from = type,values_from = cases)
egypt_corona_new1

# A tibble: 112 x 8
   date       province country   lat  long confirmed death recovered
   <date>     <chr>    <chr>   <dbl> <dbl>     <int> <int>     <int>
 1 2020-01-22 ""       Egypt      26    30         0     0         0
 2 2020-01-23 ""       Egypt      26    30         0     0         0
 3 2020-01-24 ""       Egypt      26    30         0     0         0
 4 2020-01-25 ""       Egypt      26    30         0     0         0
 5 2020-01-26 ""       Egypt      26    30         0     0         0
 6 2020-01-27 ""       Egypt      26    30         0     0         0
 7 2020-01-28 ""       Egypt      26    30         0     0         0
 8 2020-01-29 ""       Egypt      26    30         0     0         0
 9 2020-01-30 ""       Egypt      26    30         0     0         0
10 2020-01-31 ""       Egypt      26    30         0     0         0
# ... with 102 more rows

library(dplyr)
egypt_corona_new2<- egypt_corona_new1 %>%
  mutate(active=confirmed-recovered-death)
egypt_corona_new2

# A tibble: 112 x 9
   date       province country   lat  long confirmed death recovered active
   <date>     <chr>    <chr>   <dbl> <dbl>     <int> <int>     <int>  <int>
 1 2020-01-22 ""       Egypt      26    30         0     0         0      0
 2 2020-01-23 ""       Egypt      26    30         0     0         0      0
 3 2020-01-24 ""       Egypt      26    30         0     0         0      0
 4 2020-01-25 ""       Egypt      26    30         0     0         0      0
 5 2020-01-26 ""       Egypt      26    30         0     0         0      0
 6 2020-01-27 ""       Egypt      26    30         0     0         0      0
 7 2020-01-28 ""       Egypt      26    30         0     0         0      0
 8 2020-01-29 ""       Egypt      26    30         0     0         0      0
 9 2020-01-30 ""       Egypt      26    30         0     0         0      0
10 2020-01-31 ""       Egypt      26    30         0     0         0      0
# ... with 102 more rows

library(dplyr)
egypt_corona_new3<-egypt_corona_new2 %>%
  mutate(active_total = cumsum(active),
                recovered_total = cumsum(recovered),
                death_total = cumsum(death)) 
egypt_corona_new3

# A tibble: 112 x 12
   date       province country   lat  long confirmed death recovered active
   <date>     <chr>    <chr>   <dbl> <dbl>     <int> <int>     <int>  <int>
 1 2020-01-22 ""       Egypt      26    30         0     0         0      0
 2 2020-01-23 ""       Egypt      26    30         0     0         0      0
 3 2020-01-24 ""       Egypt      26    30         0     0         0      0
 4 2020-01-25 ""       Egypt      26    30         0     0         0      0
 5 2020-01-26 ""       Egypt      26    30         0     0         0      0
 6 2020-01-27 ""       Egypt      26    30         0     0         0      0
 7 2020-01-28 ""       Egypt      26    30         0     0         0      0
 8 2020-01-29 ""       Egypt      26    30         0     0         0      0
 9 2020-01-30 ""       Egypt      26    30         0     0         0      0
10 2020-01-31 ""       Egypt      26    30         0     0         0      0
# ... with 102 more rows, and 3 more variables: active_total <int>,
#   recovered_total <int>, death_total <int>
…
