Assignment
…
As per figure 03 we can see that the number of recovered cases were increased continuously from the period 22 January 2020 to 12 May 2020 and last day (12th may) shown the maximum recovered number per day is 631.

Active Cases in United Arab Emirates

# A tibble: 112 x 12
   date       province country   lat  long confirmed death recovered active
   <date>     <chr>    <chr>   <dbl> <dbl>     <int> <int>     <int>  <int>
 1 2020-01-22 ""       United~    24    54         0     0         0      0
 2 2020-01-23 ""       United~    24    54         0     0         0      0
 3 2020-01-24 ""       United~    24    54         0     0         0      0
 4 2020-01-25 ""       United~    24    54         0     0         0      0
 5 2020-01-26 ""       United~    24    54         0     0         0      0
 6 2020-01-27 ""       United~    24    54         0     0         0      0
 7 2020-01-28 ""       United~    24    54         0     0         0      0
 8 2020-01-29 ""       United~    24    54         4     0         0      4
 9 2020-01-30 ""       United~    24    54         0     0         0      0
10 2020-01-31 ""       United~    24    54         0     0         0      0
# ... with 102 more rows, and 3 more variables: active_total <int>,
#   recovered_total <int>, death_total <int>
…
