AS2016425_Peru
…
# A tibble: 112 x 8
   date       province country   lat  long confirmed death recovered
   <date>     <chr>    <chr>   <dbl> <dbl>     <int> <int>     <int>
 1 2020-01-22 ""       Peru    -9.19 -75.0         0     0         0
 2 2020-01-23 ""       Peru    -9.19 -75.0         0     0         0
 3 2020-01-24 ""       Peru    -9.19 -75.0         0     0         0
 4 2020-01-25 ""       Peru    -9.19 -75.0         0     0         0
 5 2020-01-26 ""       Peru    -9.19 -75.0         0     0         0
 6 2020-01-27 ""       Peru    -9.19 -75.0         0     0         0
 7 2020-01-28 ""       Peru    -9.19 -75.0         0     0         0
 8 2020-01-29 ""       Peru    -9.19 -75.0         0     0         0
 9 2020-01-30 ""       Peru    -9.19 -75.0         0     0         0
10 2020-01-31 ""       Peru    -9.19 -75.0         0     0         0
# ... with 102 more rows

# A tibble: 112 x 9
   date       province country   lat  long confirmed death recovered active
   <date>     <chr>    <chr>   <dbl> <dbl>     <int> <int>     <int>  <int>
 1 2020-01-22 ""       Peru    -9.19 -75.0         0     0         0      0
 2 2020-01-23 ""       Peru    -9.19 -75.0         0     0         0      0
 3 2020-01-24 ""       Peru    -9.19 -75.0         0     0         0      0
 4 2020-01-25 ""       Peru    -9.19 -75.0         0     0         0      0
 5 2020-01-26 ""       Peru    -9.19 -75.0         0     0         0      0
 6 2020-01-27 ""       Peru    -9.19 -75.0         0     0         0      0
 7 2020-01-28 ""       Peru    -9.19 -75.0         0     0         0      0
 8 2020-01-29 ""       Peru    -9.19 -75.0         0     0         0      0
 9 2020-01-30 ""       Peru    -9.19 -75.0         0     0         0      0
10 2020-01-31 ""       Peru    -9.19 -75.0         0     0         0      0
# ... with 102 more rows
…
