COVID-19 Outbreak of Mexico
…
        date province country     lat      long      type cases
1 2020-01-22           Mexico 23.6345 -102.5528 recovered     0
2 2020-01-23           Mexico 23.6345 -102.5528 recovered     0
3 2020-01-24           Mexico 23.6345 -102.5528 recovered     0
4 2020-01-25           Mexico 23.6345 -102.5528 recovered     0
5 2020-01-26           Mexico 23.6345 -102.5528 recovered     0
6 2020-01-27           Mexico 23.6345 -102.5528 recovered     0

  mean_cases
1   231.5625

Recovery has been started to report on end of the March. It become rapidly increased after end of the April. Average recovery cases per day is 232.

# A tibble: 112 x 8
   date       province country   lat  long confirmed death recovered
   <date>     <chr>    <chr>   <dbl> <dbl>     <int> <int>     <int>
 1 2020-01-22 ""       Mexico   23.6 -103.         0     0         0
 2 2020-01-23 ""       Mexico   23.6 -103.         0     0         0
 3 2020-01-24 ""       Mexico   23.6 -103.         0     0         0
 4 2020-01-25 ""       Mexico   23.6 -103.         0     0         0
 5 2020-01-26 ""       Mexico   23.6 -103.         0     0         0
 6 2020-01-27 ""       Mexico   23.6 -103.         0     0         0
 7 2020-01-28 ""       Mexico   23.6 -103.         0     0         0
 8 2020-01-29 ""       Mexico   23.6 -103.         0     0         0
 9 2020-01-30 ""       Mexico   23.6 -103.         0     0         0
10 2020-01-31 ""       Mexico   23.6 -103.         0     0         0
# ... with 102 more rows

# A tibble: 112 x 9
   date       province country   lat  long confirmed death recovered active
   <date>     <chr>    <chr>   <dbl> <dbl>     <int> <int>     <int>  <int>
 1 2020-01-22 ""       Mexico   23.6 -103.         0     0         0      0
 2 2020-01-23 ""       Mexico   23.6 -103.         0     0         0      0
 3 2020-01-24 ""       Mexico   23.6 -103.         0     0         0      0
 4 2020-01-25 ""       Mexico   23.6 -103.         0     0         0      0
 5 2020-01-26 ""       Mexico   23.6 -103.         0     0         0      0
 6 2020-01-27 ""       Mexico   23.6 -103.         0     0         0      0
 7 2020-01-28 ""       Mexico   23.6 -103.         0     0         0      0
 8 2020-01-29 ""       Mexico   23.6 -103.         0     0         0      0
 9 2020-01-30 ""       Mexico   23.6 -103.         0     0         0      0
10 2020-01-31 ""       Mexico   23.6 -103.         0     0         0      0
# ... with 102 more rows
…
