Final Assignment
…
It shows that China is located is Eastern Asia, to the east from Israel.

Figure 1.22 - Covied-19 cases in Israel and China

# A tibble: 3,808 x 9
# Groups:   country [2]
   date       province country   lat  long confirmed death recovered
   <date>     <chr>    <chr>   <dbl> <dbl>     <int> <int>     <int>
 1 2020-01-22 ""       Israel     31    35         0     0         0
 2 2020-01-23 ""       Israel     31    35         0     0         0
 3 2020-01-24 ""       Israel     31    35         0     0         0
 4 2020-01-25 ""       Israel     31    35         0     0         0
 5 2020-01-26 ""       Israel     31    35         0     0         0
 6 2020-01-27 ""       Israel     31    35         0     0         0
 7 2020-01-28 ""       Israel     31    35         0     0         0
 8 2020-01-29 ""       Israel     31    35         0     0         0
 9 2020-01-30 ""       Israel     31    35         0     0         0
10 2020-01-31 ""       Israel     31    35         0     0         0
# ... with 3,798 more rows, and 1 more variable: active_cases <int>
…
