Japan
…
head(train)

##           date province country lat long      type cases
## 179 2020-03-28            Japan  36  138     death     3
## 14  2020-02-04            Japan  36  138 confirmed     2
## 195 2020-04-13            Japan  36  138     death    15
## 306 2020-04-12            Japan  36  138 recovered     0
## 118 2020-01-27            Japan  36  138     death     0
## 299 2020-04-05            Japan  36  138 recovered     0

Japan_corona_1<-train %>%  
  pivot_longer(c(7), names_to="variable", values_to="value")
Japan_corona_1

## # A tibble: 270 x 8
##    date       province country   lat  long type      variable value
##    <date>     <chr>    <chr>   <dbl> <dbl> <chr>     <chr>    <int>
##  1 2020-03-28 ""       Japan      36   138 death     cases        3
##  2 2020-02-04 ""       Japan      36   138 confirmed cases        2
##  3 2020-04-13 ""       Japan      36   138 death     cases       15
##  4 2020-04-12 ""       Japan      36   138 recovered cases        0
##  5 2020-01-27 ""       Japan      36   138 death     cases        0
##  6 2020-04-05 ""       Japan      36   138 recovered cases        0
##  7 2020-01-26 ""       Japan      36   138 recovered cases        1
##  8 2020-02-10 ""       Japan      36   138 recovered cases        3
##  9 2020-05-11 ""       Japan      36   138 recovered cases      166
## 10 2020-03-02 ""       Japan      36   138 death     cases        0
## # ... with 260 more rows
…
