Bangladesh Corona Condition
…
head(train)

##           date province    country    lat    long      type cases
## 179 2020-03-28          Bangladesh 23.685 90.3563     death     0
## 14  2020-02-04          Bangladesh 23.685 90.3563 confirmed     0
## 195 2020-04-13          Bangladesh 23.685 90.3563     death     5
## 306 2020-04-12          Bangladesh 23.685 90.3563 recovered     3
## 118 2020-01-27          Bangladesh 23.685 90.3563     death     0
## 299 2020-04-05          Bangladesh 23.685 90.3563 recovered     3

Bangladesh_corona_1<-train%>%
  pivot_longer(c(4,5,7),names_to="Variable",values_to="value")
Bangladesh_corona_1

## # A tibble: 240 x 6
##    date       province country    type      Variable value
##    <date>     <chr>    <chr>      <chr>     <chr>    <dbl>
##  1 2020-03-28 ""       Bangladesh death     lat       23.7
##  2 2020-03-28 ""       Bangladesh death     long      90.4
##  3 2020-03-28 ""       Bangladesh death     cases      0  
##  4 2020-02-04 ""       Bangladesh confirmed lat       23.7
##  5 2020-02-04 ""       Bangladesh confirmed long      90.4
##  6 2020-02-04 ""       Bangladesh confirmed cases      0  
##  7 2020-04-13 ""       Bangladesh death     lat       23.7
##  8 2020-04-13 ""       Bangladesh death     long      90.4
##  9 2020-04-13 ""       Bangladesh death     cases      5  
## 10 2020-04-12 ""       Bangladesh recovered lat       23.7
## # ... with 230 more rows
…
