corona_Switzerland
…
switz_type <- switz_corona %>% group_by(type) 
switz_type

# A tibble: 336 x 7
# Groups:   type [3]
   date       province country       lat  long type      cases
   <date>     <chr>    <chr>       <dbl> <dbl> <chr>     <int>
 1 2020-01-22 ""       Switzerland  46.8  8.23 confirmed     0
 2 2020-01-23 ""       Switzerland  46.8  8.23 confirmed     0
 3 2020-01-24 ""       Switzerland  46.8  8.23 confirmed     0
 4 2020-01-25 ""       Switzerland  46.8  8.23 confirmed     0
 5 2020-01-26 ""       Switzerland  46.8  8.23 confirmed     0
 6 2020-01-27 ""       Switzerland  46.8  8.23 confirmed     0
 7 2020-01-28 ""       Switzerland  46.8  8.23 confirmed     0
 8 2020-01-29 ""       Switzerland  46.8  8.23 confirmed     0
 9 2020-01-30 ""       Switzerland  46.8  8.23 confirmed     0
10 2020-01-31 ""       Switzerland  46.8  8.23 confirmed     0
# ... with 326 more rows
…
2020-05-12
46.8182
8.2275
36
22
0

switz_corona_cases <- select(pivot_switz_type, c(date, lat, long, confirmed, death, recovered))
switz_corona_cases

# A tibble: 112 x 6
   date         lat  long confirmed death recovered
   <date>     <dbl> <dbl>     <int> <int>     <int>
 1 2020-01-22  46.8  8.23         0     0         0
 2 2020-01-23  46.8  8.23         0     0         0
 3 2020-01-24  46.8  8.23         0     0         0
 4 2020-01-25  46.8  8.23         0     0         0
 5 2020-01-26  46.8  8.23         0     0         0
 6 2020-01-27  46.8  8.23         0     0         0
 7 2020-01-28  46.8  8.23         0     0         0
 8 2020-01-29  46.8  8.23         0     0         0
 9 2020-01-30  46.8  8.23         0     0         0
10 2020-01-31  46.8  8.23         0     0         0
# ... with 102 more rows
…
switz_confirmed_corona <- select(switz_corona_cases, c(date,confirmed))
summary(switz_confirmed_corona)

      date              confirmed     
 Min.   :2020-01-22   Min.   :   0.0  
 1st Qu.:2020-02-18   1st Qu.:   0.0  
 Median :2020-03-17   Median :  72.5  
 Mean   :2020-03-17   Mean   : 271.2  
 3rd Qu.:2020-04-14   3rd Qu.: 397.0  
 Max.   :2020-05-12   Max.   :1321.0  

arrange(switz_confirmed_corona, desc(confirmed))

# A tibble: 112 x 2
   date       confirmed
   <date>         <int>
 1 2020-03-23      1321
 2 2020-03-21      1281
 3 2020-03-20      1219
 4 2020-04-01      1163
 5 2020-03-28      1148
 6 2020-03-27      1117
 7 2020-03-30      1093
 8 2020-03-24      1082
 9 2020-04-02      1059
10 2020-03-19      1047
# ... with 102 more rows
…
switz_death_corona <- select(switz_corona_cases, c(date,death))
summary(switz_death_corona)

      date                death      
 Min.   :2020-01-22   Min.   : 0.00  
 1st Qu.:2020-02-18   1st Qu.: 0.00  
 Median :2020-03-17   Median : 2.00  
 Mean   :2020-03-17   Mean   :16.67  
 3rd Qu.:2020-04-14   3rd Qu.:33.25  
 Max.   :2020-05-12   Max.   :75.00  

arrange(switz_death_corona, desc(death))

# A tibble: 112 x 2
   date       death
   <date>     <int>
 1 2020-04-04    75
 2 2020-03-31    74
 3 2020-04-08    74
 4 2020-04-12    70
 5 2020-04-15    65
 6 2020-03-30    59
 7 2020-04-07    56
 8 2020-04-01    55
 9 2020-04-03    55
10 2020-04-27    55
# ... with 102 more rows
…
switz_recovered_corona <- select(switz_corona_cases, c(date,recovered))
summary(switz_recovered_corona)

      date              recovered     
 Min.   :2020-01-22   Min.   :   0.0  
 1st Qu.:2020-02-18   1st Qu.:   0.0  
 Median :2020-03-17   Median :   0.0  
 Mean   :2020-03-17   Mean   : 239.3  
 3rd Qu.:2020-04-14   3rd Qu.: 400.0  
 Max.   :2020-05-12   Max.   :1700.0  

arrange(switz_recovered_corona, desc(recovered))

# A tibble: 112 x 2
   date       recovered
   <date>         <int>
 1 2020-04-15      1700
 2 2020-04-06      1641
 3 2020-04-04      1569
 4 2020-03-27      1399
 5 2020-04-01      1144
 6 2020-04-08      1096
 7 2020-04-02      1046
 8 2020-04-11      1000
 9 2020-04-13      1000
10 2020-04-03       833
# ... with 102 more rows
…
