Afghanistan: Coronavirus Pandemic
…
This chart shows that there has been a significant increase in the prevalence of corona virus in Afghanistan and not a siginificant increase in patient recovery. However, there has been no increase in the number of deaths.

afghanistan_corona_1 <- train %>% pivot_longer(c(4,5,7), names_to = "Variable", values_to = "value")
afghanistan_corona_1

## # A tibble: 756 x 6
##    date       province country     type      Variable value
##    <date>     <chr>    <chr>       <chr>     <chr>    <dbl>
##  1 2020-03-23 ""       Afghanistan recovered lat         33
##  2 2020-03-23 ""       Afghanistan recovered long        65
##  3 2020-03-23 ""       Afghanistan recovered cases        0
##  4 2020-04-27 ""       Afghanistan recovered lat         33
##  5 2020-04-27 ""       Afghanistan recovered long        65
##  6 2020-04-27 ""       Afghanistan recovered cases       13
##  7 2020-03-15 ""       Afghanistan recovered lat         33
##  8 2020-03-15 ""       Afghanistan recovered long        65
##  9 2020-03-15 ""       Afghanistan recovered cases        0
## 10 2020-01-28 ""       Afghanistan recovered lat         33
## # ... with 746 more rows
…
