Coronavirus Pandemic in Cameroon
…
2.1.4 Visualization of Active Cases

library(dplyr)
active_cameroon_corona1 <- cameroon_corona %>% pivot_wider(names_from = type,values_from = cases)
active_cameroon_corona1

# A tibble: 606 x 8
   date       province country    lat  long confirmed death recovered
   <date>     <chr>    <chr>    <dbl> <dbl>     <dbl> <dbl>     <dbl>
 1 2020-01-22 <NA>     Cameroon  3.85  11.5         0     0         0
 2 2020-01-23 <NA>     Cameroon  3.85  11.5         0     0         0
 3 2020-01-24 <NA>     Cameroon  3.85  11.5         0     0         0
 4 2020-01-25 <NA>     Cameroon  3.85  11.5         0     0         0
 5 2020-01-26 <NA>     Cameroon  3.85  11.5         0     0         0
 6 2020-01-27 <NA>     Cameroon  3.85  11.5         0     0         0
 7 2020-01-28 <NA>     Cameroon  3.85  11.5         0     0         0
 8 2020-01-29 <NA>     Cameroon  3.85  11.5         0     0         0
 9 2020-01-30 <NA>     Cameroon  3.85  11.5         0     0         0
10 2020-01-31 <NA>     Cameroon  3.85  11.5         0     0         0
# ... with 596 more rows

active_cameroon_corona2 <- active_cameroon_corona1 %>% mutate(active = confirmed - (recovered + death))
active_cameroon_corona2

# A tibble: 606 x 9
   date       province country    lat  long confirmed death recovered active
   <date>     <chr>    <chr>    <dbl> <dbl>     <dbl> <dbl>     <dbl>  <dbl>
 1 2020-01-22 <NA>     Cameroon  3.85  11.5         0     0         0      0
 2 2020-01-23 <NA>     Cameroon  3.85  11.5         0     0         0      0
 3 2020-01-24 <NA>     Cameroon  3.85  11.5         0     0         0      0
 4 2020-01-25 <NA>     Cameroon  3.85  11.5         0     0         0      0
 5 2020-01-26 <NA>     Cameroon  3.85  11.5         0     0         0      0
 6 2020-01-27 <NA>     Cameroon  3.85  11.5         0     0         0      0
 7 2020-01-28 <NA>     Cameroon  3.85  11.5         0     0         0      0
 8 2020-01-29 <NA>     Cameroon  3.85  11.5         0     0         0      0
 9 2020-01-30 <NA>     Cameroon  3.85  11.5         0     0         0      0
10 2020-01-31 <NA>     Cameroon  3.85  11.5         0     0         0      0
# ... with 596 more rows

active_cameroon_corona <- active_cameroon_corona2 %>% mutate(active_total = cumsum(active), recovered_total = cumsum(recovered), death_total = cumsum(death))
active_cameroon_corona

# A tibble: 606 x 12
   date       province country    lat  long confirmed death recovered active
   <date>     <chr>    <chr>    <dbl> <dbl>     <dbl> <dbl>     <dbl>  <dbl>
 1 2020-01-22 <NA>     Cameroon  3.85  11.5         0     0         0      0
 2 2020-01-23 <NA>     Cameroon  3.85  11.5         0     0         0      0
 3 2020-01-24 <NA>     Cameroon  3.85  11.5         0     0         0      0
 4 2020-01-25 <NA>     Cameroon  3.85  11.5         0     0         0      0
 5 2020-01-26 <NA>     Cameroon  3.85  11.5         0     0         0      0
 6 2020-01-27 <NA>     Cameroon  3.85  11.5         0     0         0      0
 7 2020-01-28 <NA>     Cameroon  3.85  11.5         0     0         0      0
 8 2020-01-29 <NA>     Cameroon  3.85  11.5         0     0         0      0
 9 2020-01-30 <NA>     Cameroon  3.85  11.5         0     0         0      0
10 2020-01-31 <NA>     Cameroon  3.85  11.5         0     0         0      0
# ... with 596 more rows, and 3 more variables: active_total <dbl>,
#   recovered_total <dbl>, death_total <dbl>
…
